%YAML 1.1
%TAG !u! tag:unity3d.com,2011:
--- !u!1 &157884
GameObject:
  m_ObjectHideFlags: 0
  m_PrefabParentObject: {fileID: 0}
  m_PrefabInternal: {fileID: 100100000}
  serializedVersion: 4
  m_Component:
  - 4: {fileID: 414220}
  - 114: {fileID: 11489632}
  m_Layer: 0
  m_Name: Gun Octa Bullet
  m_TagString: Untagged
  m_Icon: {fileID: 0}
  m_NavMeshLayer: 0
  m_StaticEditorFlags: 0
  m_IsActive: 1
--- !u!4 &414220
Transform:
  m_ObjectHideFlags: 1
  m_PrefabParentObject: {fileID: 0}
  m_PrefabInternal: {fileID: 100100000}
  m_GameObject: {fileID: 157884}
  m_LocalRotation: {x: 0, y: 0, z: 0, w: 1}
  m_LocalPosition: {x: 0, y: 0, z: 0}
  m_LocalScale: {x: 1, y: 1, z: 1}
  m_Children: []
  m_Father: {fileID: 0}
  m_RootOrder: 0
--- !u!114 &11489632
MonoBehaviour:
  m_ObjectHideFlags: 1
  m_PrefabParentObject: {fileID: 0}
  m_PrefabInternal: {fileID: 100100000}
  m_GameObject: {fileID: 157884}
  m_Enabled: 1
  m_EditorHideFlags: 0
  m_Script: {fileID: 11500000, guid: dce35c315cc16244c976e9e1c12ab7f0, type: 3}
  m_Name: 
  m_EditorClassIdentifier: 
  Type:
    Type: Gun Octa
  HasPool: 0
  Bullets:
  - Position: {x: 0, y: 0, z: 0}
    Direction: {x: 0.5, y: 0}
    Speed: 25
    Bullet: {fileID: 11481578, guid: 8dcc0a626b94abc4aa43e9f113bd1756, type: 2}
  - Position: {x: 0, y: 0, z: 0}
    Direction: {x: 0.5, y: 0.5}
    Speed: 25
    Bullet: {fileID: 11481578, guid: 8dcc0a626b94abc4aa43e9f113bd1756, type: 2}
  - Position: {x: 0, y: 0, z: 0}
    Direction: {x: 0, y: 0.5}
    Speed: 25
    Bullet: {fileID: 11481578, guid: 8dcc0a626b94abc4aa43e9f113bd1756, type: 2}
  - Position: {x: 0, y: 0, z: 0}
    Direction: {x: -0.5, y: 0.5}
    Speed: 25
    Bullet: {fileID: 11481578, guid: 8dcc0a626b94abc4aa43e9f113bd1756, type: 2}
  - Position: {x: 0, y: 0, z: 0}
    Direction: {x: -0.5, y: 0}
    Speed: 25
    Bullet: {fileID: 11481578, guid: 8dcc0a626b94abc4aa43e9f113bd1756, type: 2}
  - Position: {x: 0, y: 0, z: 0}
    Direction: {x: -0.5, y: -0.5}
    Speed: 25
    Bullet: {fileID: 11481578, guid: 8dcc0a626b94abc4aa43e9f113bd1756, type: 2}
  - Position: {x: 0, y: 0, z: 0}
    Direction: {x: 0.5, y: -0.5}
    Speed: 25
    Bullet: {fileID: 11481578, guid: 8dcc0a626b94abc4aa43e9f113bd1756, type: 2}
  - Position: {x: 0, y: 0, z: 0}
    Direction: {x: 0, y: -0.5}
    Speed: 25
    Bullet: {fileID: 11481578, guid: 8dcc0a626b94abc4aa43e9f113bd1756, type: 2}
--- !u!1001 &100100000
Prefab:
  m_ObjectHideFlags: 1
  serializedVersion: 2
  m_Modification:
    m_TransformParent: {fileID: 0}
    m_Modifications:
    - target: {fileID: 0}
      propertyPath: Bullets.Array.size
      value: 6
      objectReference: {fileID: 0}
    - target: {fileID: 0}
      propertyPath: GunType
      value: aa
      objectReference: {fileID: 0}
    - target: {fileID: 0}
      propertyPath: Type
      value: octa gun
      objectReference: {fileID: 0}
    - target: {fileID: 0}
      propertyPath: m_Layer
      value: 0
      objectReference: {fileID: 0}
    - target: {fileID: 0}
      propertyPath: Bullets.Array.data[0].Bullet
      value: 
      objectReference: {fileID: 11481578, guid: 8dcc0a626b94abc4aa43e9f113bd1756,
        type: 2}
    - target: {fileID: 0}
      propertyPath: Bullets.Array.data[1].Bullet
      value: 
      objectReference: {fileID: 11481578, guid: 8dcc0a626b94abc4aa43e9f113bd1756,
        type: 2}
    - target: {fileID: 0}
      propertyPath: Bullets.Array.data[0].Speed
      value: 25
      objectReference: {fileID: 0}
    - target: {fileID: 0}
      propertyPath: Bullets.Array.data[1].Speed
      value: 25
      objectReference: {fileID: 0}
    - target: {fileID: 0}
      propertyPath: Bullets.Array.data[0].direction.x
      value: -0.5
      objectReference: {fileID: 0}
    - target: {fileID: 0}
      propertyPath: Bullets.Array.data[0].direction.y
      value: 0.5
      objectReference: {fileID: 0}
    - target: {fileID: 0}
      propertyPath: Bullets.Array.data[2].direction.x
      value: 0.5
      objectReference: {fileID: 0}
    - target: {fileID: 0}
      propertyPath: Bullets.Array.data[2].direction.y
      value: 0.5
      objectReference: {fileID: 0}
    - target: {fileID: 0}
      propertyPath: Bullets.Array.data[2].Speed
      value: 25
      objectReference: {fileID: 0}
    - target: {fileID: 0}
      propertyPath: Bullets.Array.data[1].position.x
      value: 0
      objectReference: {fileID: 0}
    - target: {fileID: 0}
      propertyPath: Bullets.Array.data[0].direction.z
      value: 0
      objectReference: {fileID: 0}
    - target: {fileID: 0}
      propertyPath: Bullets.Array.data[1].direction.z
      value: 0
      objectReference: {fileID: 0}
    - target: {fileID: 0}
      propertyPath: Bullets.Array.data[2].direction.z
      value: 0
      objectReference: {fileID: 0}
    - target: {fileID: 0}
      propertyPath: Bullets.Array.data[0].Position.y
      value: 0
      objectReference: {fileID: 0}
    - target: {fileID: 0}
      propertyPath: Bullets.Array.data[1].Position.y
      value: 0
      objectReference: {fileID: 0}
    - target: {fileID: 0}
      propertyPath: Bullets.Array.data[0].Position.x
      value: 1
      objectReference: {fileID: 0}
    - target: {fileID: 0}
      propertyPath: Bullets.Array.data[1].Position.x
      value: 0.5
      objectReference: {fileID: 0}
    - target: {fileID: 0}
      propertyPath: Bullets.Array.data[2].Position.x
      value: 0
      objectReference: {fileID: 0}
    - target: {fileID: 0}
      propertyPath: Type.Type
      value: Gun Octa
      objectReference: {fileID: 0}
    m_RemovedComponents: []
  m_ParentPrefab: {fileID: 0}
  m_RootGameObject: {fileID: 157884}
  m_IsPrefabParent: 1
